{
    "KPlugin": {
        "Description": "Basic Controls for the keyboard backlight brightness",
        "Description[ar]": "تحكم بسيط بالإضاءة الخلفية للوحة المفاتيح",
        "Description[be]": "Базавае кіраванне яркасцю падсвятлення клавіятуры",
        "Description[bg]": "Основни контроли за яркостта на подсветката на клавиатурата",
        "Description[ca@valencia]": "Controls bàsics per a la lluminositat de la retroil·luminació del teclat",
        "Description[ca]": "Controls bàsics per a la lluminositat de la retroil·luminació del teclat",
        "Description[cs]": "Základní ovládání jasu podsvícení klávesnice",
        "Description[de]": "Grundeinstellungen zur Hintergrundhelligkeit der Tastatur",
        "Description[en_GB]": "Basic Controls for the keyboard backlight brightness",
        "Description[es]": "Control básico del brillo de la luz trasera del teclado",
        "Description[eu]": "Teklatuaren atzeko-argi distiraren oinarrizko aginteak",
        "Description[fi]": "Näppäimistön taustavalon kirkkauden perussäätimet",
        "Description[fr]": "Contrôles simples de luminosité pour le rétro-éclairage du clavier",
        "Description[ia]": "Controlos basic pro intensitate de illumination de luce de retro de claviero",
        "Description[it]": "Controlli di base della retro-illuminazione della tastiera",
        "Description[ka]": "კლავიატურის განათების სიკაშკაშის ძირითადი პარამეტრები",
        "Description[ko]": "키보드 백라이트 기본 밝기 제어",
        "Description[lt]": "Pagrindiniai klaviatūros foninio apšvietimo ryškumo valdikliai",
        "Description[nl]": "Basisbesturing voor helderheid van de toetsenbordverlichting",
        "Description[nn]": "Grunnleggjande styring av tastaturbaklys",
        "Description[pl]": "Podstawowe sterowanie dla jasności podświetlenia klawiatury",
        "Description[pt]": "Controlos básicos para o brilho traseiro do teclado",
        "Description[pt_BR]": "Controles básicos da iluminação do teclado",
        "Description[ru]": "Базовое управление подсветкой клавиатуры",
        "Description[sl]": "Osnovni nadzor svetlost osvetlitve tipkovnice",
        "Description[sv]": "Grundkontroller för ljusstyrka av tangentbordets bakgrundsbelysning",
        "Description[ta]": "விசைப்பலகைக்கு பின்னுள்ள விளக்கின் ஒளியளவை மாற்ற உதவும்",
        "Description[tr]": "Klavye arka ışığı parlaklığı için temel denetimler",
        "Description[uk]": "Базове керування яскравістю підсвічування клавіатури",
        "Description[x-test]": "xxBasic Controls for the keyboard backlight brightnessxx",
        "Description[zh_CN]": "键盘背光亮度基本控制",
        "Description[zh_TW]": "鍵盤背光亮度的基本控制",
        "Icon": "input-keyboard",
        "Name": "Keyboard backlight",
        "Name[ar]": "الإضاءة الخلفيّة للوحة المفاتيح",
        "Name[az]": "Klaviatura işıqlanması",
        "Name[be]": "Падсвятленне клавіятуры",
        "Name[bg]": "Подсветка на клавиатурата",
        "Name[bs]": "Pozadinsko osvjetljenje tastature",
        "Name[ca@valencia]": "Retroil·luminació del teclat",
        "Name[ca]": "Retroil·luminació del teclat",
        "Name[cs]": "Podsvícení klávesnice",
        "Name[da]": "Tastaturets baglys",
        "Name[de]": "Tastatur-Hintergrundbeleuchtung",
        "Name[el]": "Φωτισμός πληκτρολογίου",
        "Name[en_GB]": "Keyboard backlight",
        "Name[es]": "Luz trasera del teclado",
        "Name[et]": "Klaviatuuri taustavalgus",
        "Name[eu]": "Teklatuaren atzeko argia",
        "Name[fi]": "Näppäimistön taustavalo",
        "Name[fr]": "Rétroéclairage du clavier",
        "Name[gl]": "Luz do teclado",
        "Name[he]": "תאורה אחורית במקלדת",
        "Name[hu]": "Billentyűzet háttérvilágítás",
        "Name[ia]": "Luce de retro (Backlight) de claviero",
        "Name[id]": "Lampu papan keyboard",
        "Name[it]": "Retro-illuminazione della tastiera",
        "Name[ja]": "キーボードバックライト",
        "Name[ka]": "კლავიატურის განათება",
        "Name[ko]": "키보드 백라이트",
        "Name[lt]": "Klaviatūros foninis apšvietimas",
        "Name[nb]": "Tastaturbaklys",
        "Name[nds]": "Tastatuur-Achterlicht",
        "Name[nl]": "Toetsenbordverlichting",
        "Name[nn]": "Tastaturbaklys",
        "Name[pa]": "ਕੀ-ਬੋਰਡ ਬੈਕਲਾਈਟ",
        "Name[pl]": "Podświetlenie klawiatury",
        "Name[pt]": "Luz traseira do teclado",
        "Name[pt_BR]": "Iluminação do teclado",
        "Name[ro]": "Iluminarea tastaturii",
        "Name[ru]": "Подсветка клавиатуры",
        "Name[sk]": "Podsvietenie klávesnice",
        "Name[sl]": "Osvetlitev tipkovnice",
        "Name[sr@ijekavian]": "Осветљење тастатуре",
        "Name[sr@ijekavianlatin]": "Osvetljenje tastature",
        "Name[sr@latin]": "Osvetljenje tastature",
        "Name[sr]": "Осветљење тастатуре",
        "Name[sv]": "Bakgrundsbelysning på tangentbord",
        "Name[ta]": "விசைப்பலகையின் பின்விளக்கு",
        "Name[tg]": "Чароғкунии клавиатура",
        "Name[tr]": "Klavye arka ışığı",
        "Name[uk]": "Підсвічування клавіатури",
        "Name[x-test]": "xxKeyboard backlightxx",
        "Name[zh_CN]": "键盘背光",
        "Name[zh_TW]": "鍵盤背光"
    },
    "X-KDE-PowerDevil-Action-ConfigPriority": 100,
    "X-KDE-PowerDevil-Action-HasRuntimeRequirement": true,
    "X-KDE-PowerDevil-Action-ID": "KeyboardBrightnessControl",
    "X-KDE-PowerDevil-Action-RegistersDBusInterface": true,
    "X-KDE-PowerDevil-Action-UIComponentLibrary": "powerdevilkeyboardbrightnesscontrolaction_config"
}
